{"id":1,"customerTypeId":2,"fullName":"Cameron MacDonald","address1":"77 Elm Lane","city":"Charlottetown","province":"PE","postalCode":"c1a 1t5","phoneNumber":"666-666-6666","birthDate":"2001-03-04","loyaltyCard":"","customerTypeDescription":"Preferred"}
{"id":2,"customerTypeId":2,"fullName":"Karen George","address1":"66 Park Lane","city":"Charlottetown","province":"PE","postalCode":"c1a 3l4","phoneNumber":"902-314-1234","birthDate":"1999-12-25","loyaltyCard":"123321","customerTypeDescription":"Preferred"}
{"id":3,"customerTypeId":2,"fullName":"Parker Gallant","address1":"123 South Drive","city":"Summerside","province":"PE","postalCode":"c1c 3x4","phoneNumber":"902-436-7676","birthDate":"1999-12-01","loyaltyCard":"222334","customerTypeDescription":"Preferred"}
