{"id":1,"customerId":2,"orderDate":"2020-10-09","item1":9,"item2":3,"item3":2,"item4":4,"item5":3,"item6":2,"orderStatus":2,"totalCost":200.00,"amountPaid":0.00,"orderStatusTypeDescription":"Completed"}
{"id":12,"orderDate":"","orderStatus":2,"orderStatusTypeDescription":"Completed"}
{"id":14,"orderDate":"","orderStatus":1,"orderStatusTypeDescription":"In Progress"}
{"id":15,"orderDate":"","orderStatus":1,"orderStatusTypeDescription":"In Progress"}
{"id":1,"customerId":2,"orderDate":"2020-10-09","item1":9,"item2":3,"item3":2,"item4":4,"item5":3,"item6":2,"orderStatus":2,"totalCost":200.00,"amountPaid":0.00,"orderStatusTypeDescription":"Completed"}
{"id":12,"orderDate":"","orderStatus":2,"orderStatusTypeDescription":"Completed"}
{"id":14,"orderDate":"","orderStatus":1,"orderStatusTypeDescription":"In Progress"}
{"id":15,"orderDate":"","orderStatus":1,"orderStatusTypeDescription":"In Progress"}
